Attempts: 1 - Request URL: www.mattjennings.net/press/wp-admin/setup-config.php
Attempts: 2 - Request URL: www.mattjennings.net/cms/wp-admin/setup-config.php
Attempts: 3 - Request URL: www.mattjennings.net/main/wp-admin/setup-config.php
Attempts: 4 - Request URL: www.mattjennings.net/protal/wp-admin/setup-config.php
Attempts: 5 - Request URL: www.mattjennings.net/protal/wp-admin/setup-config.php
